(kicad_sch (version 20230121) (generator eeschema)

  (uuid 667577c7-17cb-4fd7-ac7f-77a716a9c5bd)

  (paper "A4")

  (title_block
    (comment 1 "www.damped.ca")
  )

  (lib_symbols
    (symbol "Connector:TestPoint" (pin_numbers hide) (pin_names (offset 0.762) hide) (in_bom yes) (on_board yes)
      (property "Reference" "TP" (at 0 6.858 0)
        (effects (font (size 1.27 1.27)))
      )
      (property "Value" "TestPoint" (at 0 5.08 0)
        (effects (font (size 1.27 1.27)))
      )
      (property "Footprint" "" (at 5.08 0 0)
        (effects (font (size 1.27 1.27)) hide)
      )
      (property "Datasheet" "~" (at 5.08 0 0)
        (effects (font (size 1.27 1.27)) hide)
      )
      (property "ki_keywords" "test point tp" (at 0 0 0)
        (effects (font (size 1.27 1.27)) hide)
      )
      (property "ki_description" "test point" (at 0 0 0)
        (effects (font (size 1.27 1.27)) hide)
      )
      (property "ki_fp_filters" "Pin* Test*" (at 0 0 0)
        (effects (font (size 1.27 1.27)) hide)
      )
      (symbol "TestPoint_0_1"
        (circle (center 0 3.302) (radius 0.762)
          (stroke (width 0) (type default))
          (fill (type none))
        )
      )
      (symbol "TestPoint_1_1"
        (pin passive line (at 0 0 90) (length 2.54)
          (name "1" (effects (font (size 1.27 1.27))))
          (number "1" (effects (font (size 1.27 1.27))))
        )
      )
    )
    (symbol "Jumper:SolderJumper_3_Open" (pin_names (offset 0) hide) (in_bom yes) (on_board yes)
      (property "Reference" "JP" (at -2.54 -2.54 0)
        (effects (font (size 1.27 1.27)))
      )
      (property "Value" "SolderJumper_3_Open" (at 0 2.794 0)
        (effects (font (size 1.27 1.27)))
      )
      (property "Footprint" "" (at 0 0 0)
        (effects (font (size 1.27 1.27)) hide)
      )
      (property "Datasheet" "~" (at 0 0 0)
        (effects (font (size 1.27 1.27)) hide)
      )
      (property "ki_keywords" "Solder Jumper SPDT" (at 0 0 0)
        (effects (font (size 1.27 1.27)) hide)
      )
      (property "ki_description" "Solder Jumper, 3-pole, open" (at 0 0 0)
        (effects (font (size 1.27 1.27)) hide)
      )
      (property "ki_fp_filters" "SolderJumper*Open*" (at 0 0 0)
        (effects (font (size 1.27 1.27)) hide)
      )
      (symbol "SolderJumper_3_Open_0_1"
        (arc (start -1.016 1.016) (mid -2.0276 0) (end -1.016 -1.016)
          (stroke (width 0) (type default))
          (fill (type none))
        )
        (arc (start -1.016 1.016) (mid -2.0276 0) (end -1.016 -1.016)
          (stroke (width 0) (type default))
          (fill (type outline))
        )
        (rectangle (start -0.508 1.016) (end 0.508 -1.016)
          (stroke (width 0) (type default))
          (fill (type outline))
        )
        (polyline
          (pts
            (xy -2.54 0)
            (xy -2.032 0)
          )
          (stroke (width 0) (type default))
          (fill (type none))
        )
        (polyline
          (pts
            (xy -1.016 1.016)
            (xy -1.016 -1.016)
          )
          (stroke (width 0) (type default))
          (fill (type none))
        )
        (polyline
          (pts
            (xy 0 -1.27)
            (xy 0 -1.016)
          )
          (stroke (width 0) (type default))
          (fill (type none))
        )
        (polyline
          (pts
            (xy 1.016 1.016)
            (xy 1.016 -1.016)
          )
          (stroke (width 0) (type default))
          (fill (type none))
        )
        (polyline
          (pts
            (xy 2.54 0)
            (xy 2.032 0)
          )
          (stroke (width 0) (type default))
          (fill (type none))
        )
        (arc (start 1.016 -1.016) (mid 2.0276 0) (end 1.016 1.016)
          (stroke (width 0) (type default))
          (fill (type none))
        )
        (arc (start 1.016 -1.016) (mid 2.0276 0) (end 1.016 1.016)
          (stroke (width 0) (type default))
          (fill (type outline))
        )
      )
      (symbol "SolderJumper_3_Open_1_1"
        (pin passive line (at -5.08 0 0) (length 2.54)
          (name "A" (effects (font (size 1.27 1.27))))
          (number "1" (effects (font (size 1.27 1.27))))
        )
        (pin passive line (at 0 -3.81 90) (length 2.54)
          (name "C" (effects (font (size 1.27 1.27))))
          (number "2" (effects (font (size 1.27 1.27))))
        )
        (pin passive line (at 5.08 0 180) (length 2.54)
          (name "B" (effects (font (size 1.27 1.27))))
          (number "3" (effects (font (size 1.27 1.27))))
        )
      )
    )
    (symbol "power:+5V" (power) (pin_names (offset 0)) (in_bom yes) (on_board yes)
      (property "Reference" "#PWR" (at 0 -3.81 0)
        (effects (font (size 1.27 1.27)) hide)
      )
      (property "Value" "+5V" (at 0 3.556 0)
        (effects (font (size 1.27 1.27)))
      )
      (property "Footprint" "" (at 0 0 0)
        (effects (font (size 1.27 1.27)) hide)
      )
      (property "Datasheet" "" (at 0 0 0)
        (effects (font (size 1.27 1.27)) hide)
      )
      (property "ki_keywords" "global power" (at 0 0 0)
        (effects (font (size 1.27 1.27)) hide)
      )
      (property "ki_description" "Power symbol creates a global label with name \"+5V\"" (at 0 0 0)
        (effects (font (size 1.27 1.27)) hide)
      )
      (symbol "+5V_0_1"
        (polyline
          (pts
            (xy -0.762 1.27)
            (xy 0 2.54)
          )
          (stroke (width 0) (type default))
          (fill (type none))
        )
        (polyline
          (pts
            (xy 0 0)
            (xy 0 2.54)
          )
          (stroke (width 0) (type default))
          (fill (type none))
        )
        (polyline
          (pts
            (xy 0 2.54)
            (xy 0.762 1.27)
          )
          (stroke (width 0) (type default))
          (fill (type none))
        )
      )
      (symbol "+5V_1_1"
        (pin power_in line (at 0 0 90) (length 0) hide
          (name "+5V" (effects (font (size 1.27 1.27))))
          (number "1" (effects (font (size 1.27 1.27))))
        )
      )
    )
    (symbol "power:GND" (power) (pin_names (offset 0)) (in_bom yes) (on_board yes)
      (property "Reference" "#PWR" (at 0 -6.35 0)
        (effects (font (size 1.27 1.27)) hide)
      )
      (property "Value" "GND" (at 0 -3.81 0)
        (effects (font (size 1.27 1.27)))
      )
      (property "Footprint" "" (at 0 0 0)
        (effects (font (size 1.27 1.27)) hide)
      )
      (property "Datasheet" "" (at 0 0 0)
        (effects (font (size 1.27 1.27)) hide)
      )
      (property "ki_keywords" "global power" (at 0 0 0)
        (effects (font (size 1.27 1.27)) hide)
      )
      (property "ki_description" "Power symbol creates a global label with name \"GND\" , ground" (at 0 0 0)
        (effects (font (size 1.27 1.27)) hide)
      )
      (symbol "GND_0_1"
        (polyline
          (pts
            (xy 0 0)
            (xy 0 -1.27)
            (xy 1.27 -1.27)
            (xy 0 -2.54)
            (xy -1.27 -1.27)
            (xy 0 -1.27)
          )
          (stroke (width 0) (type default))
          (fill (type none))
        )
      )
      (symbol "GND_1_1"
        (pin power_in line (at 0 0 270) (length 0) hide
          (name "GND" (effects (font (size 1.27 1.27))))
          (number "1" (effects (font (size 1.27 1.27))))
        )
      )
    )
  )


  (polyline (pts (xy 127 95.25) (xy 127 63.5))
    (stroke (width 0) (type dash))
    (uuid 4efa1cf6-42a8-42ae-a8ad-3af2dcd00219)
  )
  (polyline (pts (xy 152.4 86.36) (xy 152.4 63.5))
    (stroke (width 0) (type dash))
    (uuid 69314b35-dab6-42a6-b523-ac3a5703ae53)
  )
  (polyline (pts (xy 218.44 86.36) (xy 152.4 86.36))
    (stroke (width 0) (type dash))
    (uuid 7725fa5e-760f-49b1-b1d3-fee47238c8a6)
  )
  (polyline (pts (xy 218.44 63.5) (xy 218.44 86.36))
    (stroke (width 0) (type dash))
    (uuid 82dfea87-3896-4b6c-9208-1542e8e155ed)
  )
  (polyline (pts (xy 63.5 95.25) (xy 127 95.25))
    (stroke (width 0) (type dash))
    (uuid 90bb8139-21f6-4b72-ac15-004a490a5da1)
  )
  (polyline (pts (xy 152.4 63.5) (xy 218.44 63.5))
    (stroke (width 0) (type dash))
    (uuid 9c2a4ee1-b6c9-45a4-9204-032b32c08f88)
  )
  (polyline (pts (xy 127 63.5) (xy 63.5 63.5))
    (stroke (width 0) (type dash))
    (uuid ebbdda0f-f556-4cf8-9c25-1965a3cf2122)
  )
  (polyline (pts (xy 63.5 95.25) (xy 63.5 63.5))
    (stroke (width 0) (type dash))
    (uuid f6689bf5-babc-4fe8-a7d3-13c6ba76b198)
  )

  (text "Test Points" (at 64.77 66.04 0)
    (effects (font (size 1.27 1.27)) (justify left bottom))
    (uuid 1009737b-6273-46a0-89c7-6e4f8ed78b29)
  )
  (text "BOOST\nSETTINGS" (at 153.67 68.58 0)
    (effects (font (size 1.27 1.27)) (justify left bottom))
    (uuid eef013d0-a91a-4c19-a4bc-bc7b7647ba42)
  )

  (global_label "BOOST-Y" (shape input) (at 185.42 74.93 180) (fields_autoplaced)
    (effects (font (size 1.27 1.27)) (justify right))
    (uuid 043fb988-439d-47fb-b642-cf06b03ef61d)
    (property "Intersheetrefs" "${INTERSHEET_REFS}" (at -25.4 -78.74 0)
      (effects (font (size 1.27 1.27)) hide)
    )
  )
  (global_label "HOME-Y" (shape input) (at 72.39 78.74 0) (fields_autoplaced)
    (effects (font (size 1.27 1.27)) (justify left))
    (uuid 176bdbfc-cddb-4e6c-a9ce-c9aeedfe40ea)
    (property "Intersheetrefs" "${INTERSHEET_REFS}" (at -62.23 -101.6 0)
      (effects (font (size 1.27 1.27)) hide)
    )
  )
  (global_label "HOME-X" (shape input) (at 72.39 72.39 0) (fields_autoplaced)
    (effects (font (size 1.27 1.27)) (justify left))
    (uuid 24056367-8d4b-4522-a696-e1235345886e)
    (property "Intersheetrefs" "${INTERSHEET_REFS}" (at -62.23 -101.6 0)
      (effects (font (size 1.27 1.27)) hide)
    )
  )
  (global_label "START" (shape input) (at 97.79 78.74 0) (fields_autoplaced)
    (effects (font (size 1.27 1.27)) (justify left))
    (uuid 3dfd8886-d4b0-4c16-876a-2c71da67587c)
    (property "Intersheetrefs" "${INTERSHEET_REFS}" (at -62.23 -101.6 0)
      (effects (font (size 1.27 1.27)) hide)
    )
  )
  (global_label "BOOST-X" (shape input) (at 207.01 74.93 180) (fields_autoplaced)
    (effects (font (size 1.27 1.27)) (justify right))
    (uuid 68f7b90f-96fd-4b70-a430-69278379ab00)
    (property "Intersheetrefs" "${INTERSHEET_REFS}" (at -25.4 -78.74 0)
      (effects (font (size 1.27 1.27)) hide)
    )
  )
  (global_label "BOOST-Z" (shape input) (at 163.83 74.93 180) (fields_autoplaced)
    (effects (font (size 1.27 1.27)) (justify right))
    (uuid 6b695d96-49ad-40fc-afe4-ac3147389d55)
    (property "Intersheetrefs" "${INTERSHEET_REFS}" (at -25.4 -78.74 0)
      (effects (font (size 1.27 1.27)) hide)
    )
  )
  (global_label "ABORT(RESET)" (shape input) (at 97.79 92.71 0) (fields_autoplaced)
    (effects (font (size 1.27 1.27)) (justify left))
    (uuid 824d7ef2-4b9f-44cc-bc70-67aa578d0081)
    (property "Intersheetrefs" "${INTERSHEET_REFS}" (at -62.23 -101.6 0)
      (effects (font (size 1.27 1.27)) hide)
    )
  )
  (global_label "PROBE" (shape input) (at 97.79 72.39 0) (fields_autoplaced)
    (effects (font (size 1.27 1.27)) (justify left))
    (uuid 8d1e2d81-4842-4133-9ac2-c59a03b44f96)
    (property "Intersheetrefs" "${INTERSHEET_REFS}" (at -62.23 -101.6 0)
      (effects (font (size 1.27 1.27)) hide)
    )
  )
  (global_label "HOME-Z" (shape input) (at 72.39 85.09 0) (fields_autoplaced)
    (effects (font (size 1.27 1.27)) (justify left))
    (uuid 9dd0cd5e-315b-4e06-b9ce-ba88ebe52669)
    (property "Intersheetrefs" "${INTERSHEET_REFS}" (at -62.23 -101.6 0)
      (effects (font (size 1.27 1.27)) hide)
    )
  )
  (global_label "HOLD" (shape input) (at 97.79 85.09 0) (fields_autoplaced)
    (effects (font (size 1.27 1.27)) (justify left))
    (uuid c2922c0f-450d-4a60-9ae6-f262c6258933)
    (property "Intersheetrefs" "${INTERSHEET_REFS}" (at -62.23 -101.6 0)
      (effects (font (size 1.27 1.27)) hide)
    )
  )
  (global_label "S_PWM_FILTERED" (shape input) (at 72.39 92.71 0) (fields_autoplaced)
    (effects (font (size 1.27 1.27)) (justify left))
    (uuid f9951283-000d-428c-a560-c1f18b239eef)
    (property "Intersheetrefs" "${INTERSHEET_REFS}" (at -62.23 -101.6 0)
      (effects (font (size 1.27 1.27)) hide)
    )
  )

  (symbol (lib_id "Jumper:SolderJumper_3_Open") (at 189.23 74.93 270) (unit 1)
    (in_bom yes) (on_board yes) (dnp no)
    (uuid 15ec9b84-9bbd-4cd4-a15b-b1602dec6f2d)
    (property "Reference" "JP2" (at 184.15 72.39 90)
      (effects (font (size 1.27 1.27)) (justify left))
    )
    (property "Value" "SolderJumper_3_Open" (at 194.31 64.77 0)
      (effects (font (size 1.27 1.27)) (justify left))
    )
    (property "Footprint" "Jumper:SolderJumper-3_P1.3mm_Open_Pad1.0x1.5mm" (at 189.23 74.93 0)
      (effects (font (size 1.27 1.27)) hide)
    )
    (property "Datasheet" "~" (at 189.23 74.93 0)
      (effects (font (size 1.27 1.27)) hide)
    )
    (pin "1" (uuid 7bab2858-00a2-4920-8ba6-235113cc1f2b))
    (pin "2" (uuid a88a636a-e826-4b6f-92ed-db11cc95ced0))
    (pin "3" (uuid f7cef8ab-8bb8-470a-8e81-319b47bc5eb3))
    (instances
      (project "pcb"
        (path "/51502770-eb35-457a-b632-d7bc29a52de3/a4cbc363-e942-428c-9b87-30237cfb9e8e"
          (reference "JP2") (unit 1)
        )
      )
    )
  )

  (symbol (lib_id "Connector:TestPoint") (at 97.79 92.71 90) (unit 1)
    (in_bom yes) (on_board yes) (dnp no)
    (uuid 1e1ec4af-4de0-45e8-bb85-e8e15a7e7994)
    (property "Reference" "TP4" (at 93.98 91.44 90)
      (effects (font (size 1.27 1.27)) (justify left))
    )
    (property "Value" "STOP" (at 97.0534 91.2368 0)
      (effects (font (size 1.27 1.27)) (justify left))
    )
    (property "Footprint" "TestPoint:TestPoint_THTPad_1.0x1.0mm_Drill0.5mm" (at 97.79 87.63 0)
      (effects (font (size 1.27 1.27)) hide)
    )
    (property "Datasheet" "~" (at 97.79 87.63 0)
      (effects (font (size 1.27 1.27)) hide)
    )
    (pin "1" (uuid 72f12669-dbb4-4fd7-b456-9486c350a1eb))
    (instances
      (project "pcb"
        (path "/51502770-eb35-457a-b632-d7bc29a52de3/a4cbc363-e942-428c-9b87-30237cfb9e8e"
          (reference "TP4") (unit 1)
        )
      )
    )
  )

  (symbol (lib_id "Connector:TestPoint") (at 72.39 72.39 90) (unit 1)
    (in_bom yes) (on_board yes) (dnp no)
    (uuid 2ca51ee3-5759-4a06-9369-15670bd7f25d)
    (property "Reference" "TP1" (at 68.58 71.12 90)
      (effects (font (size 1.27 1.27)) (justify left))
    )
    (property "Value" "X" (at 71.6534 70.9168 90)
      (effects (font (size 1.27 1.27)) (justify left))
    )
    (property "Footprint" "TestPoint:TestPoint_THTPad_1.0x1.0mm_Drill0.5mm" (at 72.39 67.31 0)
      (effects (font (size 1.27 1.27)) hide)
    )
    (property "Datasheet" "~" (at 72.39 67.31 0)
      (effects (font (size 1.27 1.27)) hide)
    )
    (pin "1" (uuid eb3469c2-8921-46ec-9351-512af7bdaf0b))
    (instances
      (project "pcb"
        (path "/51502770-eb35-457a-b632-d7bc29a52de3/a4cbc363-e942-428c-9b87-30237cfb9e8e"
          (reference "TP1") (unit 1)
        )
      )
    )
  )

  (symbol (lib_id "Connector:TestPoint") (at 72.39 85.09 90) (unit 1)
    (in_bom yes) (on_board yes) (dnp no)
    (uuid 4e0d19d8-42e9-4d1c-a15e-3ce8fa0afa53)
    (property "Reference" "TP3" (at 68.58 83.82 90)
      (effects (font (size 1.27 1.27)) (justify left))
    )
    (property "Value" "Z" (at 71.6534 83.6168 90)
      (effects (font (size 1.27 1.27)) (justify left))
    )
    (property "Footprint" "TestPoint:TestPoint_THTPad_1.0x1.0mm_Drill0.5mm" (at 72.39 80.01 0)
      (effects (font (size 1.27 1.27)) hide)
    )
    (property "Datasheet" "~" (at 72.39 80.01 0)
      (effects (font (size 1.27 1.27)) hide)
    )
    (pin "1" (uuid 6ae63a1e-ab2a-423e-b167-8a059669318d))
    (instances
      (project "pcb"
        (path "/51502770-eb35-457a-b632-d7bc29a52de3/a4cbc363-e942-428c-9b87-30237cfb9e8e"
          (reference "TP3") (unit 1)
        )
      )
    )
  )

  (symbol (lib_id "Connector:TestPoint") (at 97.79 78.74 90) (unit 1)
    (in_bom yes) (on_board yes) (dnp no)
    (uuid 585726c5-723e-42cd-9b29-173ce855e33b)
    (property "Reference" "TP6" (at 93.98 77.47 90)
      (effects (font (size 1.27 1.27)) (justify left))
    )
    (property "Value" "Start" (at 97.0534 77.2668 0)
      (effects (font (size 1.27 1.27)) (justify left))
    )
    (property "Footprint" "TestPoint:TestPoint_THTPad_1.0x1.0mm_Drill0.5mm" (at 97.79 73.66 0)
      (effects (font (size 1.27 1.27)) hide)
    )
    (property "Datasheet" "~" (at 97.79 73.66 0)
      (effects (font (size 1.27 1.27)) hide)
    )
    (pin "1" (uuid 80d0f4a6-bf0b-4877-bf93-1a39f5038ccf))
    (instances
      (project "pcb"
        (path "/51502770-eb35-457a-b632-d7bc29a52de3/a4cbc363-e942-428c-9b87-30237cfb9e8e"
          (reference "TP6") (unit 1)
        )
      )
    )
  )

  (symbol (lib_id "Connector:TestPoint") (at 97.79 85.09 90) (unit 1)
    (in_bom yes) (on_board yes) (dnp no)
    (uuid 5d3fbea8-db24-4d8f-90a9-d9b8e621652e)
    (property "Reference" "TP7" (at 93.98 83.82 90)
      (effects (font (size 1.27 1.27)) (justify left))
    )
    (property "Value" "Hold" (at 97.0534 83.6168 0)
      (effects (font (size 1.27 1.27)) (justify left))
    )
    (property "Footprint" "TestPoint:TestPoint_THTPad_1.0x1.0mm_Drill0.5mm" (at 97.79 80.01 0)
      (effects (font (size 1.27 1.27)) hide)
    )
    (property "Datasheet" "~" (at 97.79 80.01 0)
      (effects (font (size 1.27 1.27)) hide)
    )
    (pin "1" (uuid 5c6815bb-d00e-45fb-ba73-55f470ca62ea))
    (instances
      (project "pcb"
        (path "/51502770-eb35-457a-b632-d7bc29a52de3/a4cbc363-e942-428c-9b87-30237cfb9e8e"
          (reference "TP7") (unit 1)
        )
      )
    )
  )

  (symbol (lib_id "Connector:TestPoint") (at 72.39 92.71 90) (unit 1)
    (in_bom yes) (on_board yes) (dnp no)
    (uuid 62f983d8-a189-4974-a5b9-f4e31132819f)
    (property "Reference" "TP8" (at 68.58 91.44 90)
      (effects (font (size 1.27 1.27)) (justify left))
    )
    (property "Value" "Spindle PWM Filtered" (at 90.17 90.17 90)
      (effects (font (size 1.27 1.27)) (justify left))
    )
    (property "Footprint" "TestPoint:TestPoint_THTPad_1.0x1.0mm_Drill0.5mm" (at 72.39 87.63 0)
      (effects (font (size 1.27 1.27)) hide)
    )
    (property "Datasheet" "~" (at 72.39 87.63 0)
      (effects (font (size 1.27 1.27)) hide)
    )
    (pin "1" (uuid 33fce676-a05b-4fa2-b220-532a9635d13b))
    (instances
      (project "pcb"
        (path "/51502770-eb35-457a-b632-d7bc29a52de3/a4cbc363-e942-428c-9b87-30237cfb9e8e"
          (reference "TP8") (unit 1)
        )
      )
    )
  )

  (symbol (lib_id "Jumper:SolderJumper_3_Open") (at 167.64 74.93 270) (unit 1)
    (in_bom yes) (on_board yes) (dnp no)
    (uuid 6486c6b9-5bf1-413e-affe-80fb50543cae)
    (property "Reference" "JP1" (at 162.56 72.39 90)
      (effects (font (size 1.27 1.27)) (justify left))
    )
    (property "Value" "SolderJumper_3_Open" (at 172.72 64.77 0)
      (effects (font (size 1.27 1.27)) (justify left))
    )
    (property "Footprint" "Jumper:SolderJumper-3_P1.3mm_Open_Pad1.0x1.5mm" (at 167.64 74.93 0)
      (effects (font (size 1.27 1.27)) hide)
    )
    (property "Datasheet" "~" (at 167.64 74.93 0)
      (effects (font (size 1.27 1.27)) hide)
    )
    (pin "1" (uuid 01209867-975c-457a-b777-783512df77ce))
    (pin "2" (uuid dcdbe629-e221-4f1c-a863-e6366185a14a))
    (pin "3" (uuid 1e26fa87-824c-44bf-a1af-07e0ff8cf169))
    (instances
      (project "pcb"
        (path "/51502770-eb35-457a-b632-d7bc29a52de3/a4cbc363-e942-428c-9b87-30237cfb9e8e"
          (reference "JP1") (unit 1)
        )
      )
    )
  )

  (symbol (lib_id "power:GND") (at 210.82 80.01 0) (unit 1)
    (in_bom yes) (on_board yes) (dnp no)
    (uuid 8b450835-838f-4650-8fac-7d2e013a5317)
    (property "Reference" "#PWR0101" (at 210.82 86.36 0)
      (effects (font (size 1.27 1.27)) hide)
    )
    (property "Value" "GND" (at 210.947 84.4042 0)
      (effects (font (size 1.27 1.27)))
    )
    (property "Footprint" "" (at 210.82 80.01 0)
      (effects (font (size 1.27 1.27)) hide)
    )
    (property "Datasheet" "" (at 210.82 80.01 0)
      (effects (font (size 1.27 1.27)) hide)
    )
    (pin "1" (uuid ebab3607-cdc5-4674-b619-81cfa39d598f))
    (instances
      (project "pcb"
        (path "/51502770-eb35-457a-b632-d7bc29a52de3/a4cbc363-e942-428c-9b87-30237cfb9e8e"
          (reference "#PWR0101") (unit 1)
        )
      )
    )
  )

  (symbol (lib_id "power:+5V") (at 210.82 69.85 0) (unit 1)
    (in_bom yes) (on_board yes) (dnp no)
    (uuid 8ba0735b-9cbb-4da7-ac21-c977aeccc045)
    (property "Reference" "#PWR0106" (at 210.82 73.66 0)
      (effects (font (size 1.27 1.27)) hide)
    )
    (property "Value" "+5V" (at 211.201 65.4558 0)
      (effects (font (size 1.27 1.27)))
    )
    (property "Footprint" "" (at 210.82 69.85 0)
      (effects (font (size 1.27 1.27)) hide)
    )
    (property "Datasheet" "" (at 210.82 69.85 0)
      (effects (font (size 1.27 1.27)) hide)
    )
    (pin "1" (uuid 65f762ac-f3a1-4374-9f0d-a9d767b77245))
    (instances
      (project "pcb"
        (path "/51502770-eb35-457a-b632-d7bc29a52de3/a4cbc363-e942-428c-9b87-30237cfb9e8e"
          (reference "#PWR0106") (unit 1)
        )
      )
    )
  )

  (symbol (lib_id "power:GND") (at 189.23 80.01 0) (unit 1)
    (in_bom yes) (on_board yes) (dnp no)
    (uuid b7517938-feb2-4d7c-803c-5b80ce46d2e4)
    (property "Reference" "#PWR0102" (at 189.23 86.36 0)
      (effects (font (size 1.27 1.27)) hide)
    )
    (property "Value" "GND" (at 189.357 84.4042 0)
      (effects (font (size 1.27 1.27)))
    )
    (property "Footprint" "" (at 189.23 80.01 0)
      (effects (font (size 1.27 1.27)) hide)
    )
    (property "Datasheet" "" (at 189.23 80.01 0)
      (effects (font (size 1.27 1.27)) hide)
    )
    (pin "1" (uuid 16095099-0616-4cf2-ac45-74b3d67275ca))
    (instances
      (project "pcb"
        (path "/51502770-eb35-457a-b632-d7bc29a52de3/a4cbc363-e942-428c-9b87-30237cfb9e8e"
          (reference "#PWR0102") (unit 1)
        )
      )
    )
  )

  (symbol (lib_id "power:GND") (at 167.64 80.01 0) (unit 1)
    (in_bom yes) (on_board yes) (dnp no)
    (uuid c05db8ed-0637-4726-ac59-37c6fb68612e)
    (property "Reference" "#PWR0103" (at 167.64 86.36 0)
      (effects (font (size 1.27 1.27)) hide)
    )
    (property "Value" "GND" (at 167.767 84.4042 0)
      (effects (font (size 1.27 1.27)))
    )
    (property "Footprint" "" (at 167.64 80.01 0)
      (effects (font (size 1.27 1.27)) hide)
    )
    (property "Datasheet" "" (at 167.64 80.01 0)
      (effects (font (size 1.27 1.27)) hide)
    )
    (pin "1" (uuid b9be05bf-4dea-4e7c-8337-ae748a136849))
    (instances
      (project "pcb"
        (path "/51502770-eb35-457a-b632-d7bc29a52de3/a4cbc363-e942-428c-9b87-30237cfb9e8e"
          (reference "#PWR0103") (unit 1)
        )
      )
    )
  )

  (symbol (lib_id "Connector:TestPoint") (at 72.39 78.74 90) (unit 1)
    (in_bom yes) (on_board yes) (dnp no)
    (uuid dd56624e-3034-4038-9dd4-bdf606714220)
    (property "Reference" "TP2" (at 68.58 77.47 90)
      (effects (font (size 1.27 1.27)) (justify left))
    )
    (property "Value" "Y" (at 71.6534 77.2668 90)
      (effects (font (size 1.27 1.27)) (justify left))
    )
    (property "Footprint" "TestPoint:TestPoint_THTPad_1.0x1.0mm_Drill0.5mm" (at 72.39 73.66 0)
      (effects (font (size 1.27 1.27)) hide)
    )
    (property "Datasheet" "~" (at 72.39 73.66 0)
      (effects (font (size 1.27 1.27)) hide)
    )
    (pin "1" (uuid 184dd182-926b-4617-8e22-3db2d2b0334c))
    (instances
      (project "pcb"
        (path "/51502770-eb35-457a-b632-d7bc29a52de3/a4cbc363-e942-428c-9b87-30237cfb9e8e"
          (reference "TP2") (unit 1)
        )
      )
    )
  )

  (symbol (lib_id "power:+5V") (at 189.23 69.85 0) (mirror y) (unit 1)
    (in_bom yes) (on_board yes) (dnp no)
    (uuid de274b3a-e658-41ca-a0b7-ef7982853840)
    (property "Reference" "#PWR0105" (at 189.23 73.66 0)
      (effects (font (size 1.27 1.27)) hide)
    )
    (property "Value" "+5V" (at 188.849 65.4558 0)
      (effects (font (size 1.27 1.27)))
    )
    (property "Footprint" "" (at 189.23 69.85 0)
      (effects (font (size 1.27 1.27)) hide)
    )
    (property "Datasheet" "" (at 189.23 69.85 0)
      (effects (font (size 1.27 1.27)) hide)
    )
    (pin "1" (uuid b5f1c543-6731-4354-9141-519fb1862fc4))
    (instances
      (project "pcb"
        (path "/51502770-eb35-457a-b632-d7bc29a52de3/a4cbc363-e942-428c-9b87-30237cfb9e8e"
          (reference "#PWR0105") (unit 1)
        )
      )
    )
  )

  (symbol (lib_id "Connector:TestPoint") (at 97.79 72.39 90) (unit 1)
    (in_bom yes) (on_board yes) (dnp no)
    (uuid f8e924cd-76eb-475c-a050-55f56a2f9eb1)
    (property "Reference" "TP5" (at 93.98 71.12 90)
      (effects (font (size 1.27 1.27)) (justify left))
    )
    (property "Value" "Probe" (at 97.0534 70.9168 0)
      (effects (font (size 1.27 1.27)) (justify left))
    )
    (property "Footprint" "TestPoint:TestPoint_THTPad_1.0x1.0mm_Drill0.5mm" (at 97.79 67.31 0)
      (effects (font (size 1.27 1.27)) hide)
    )
    (property "Datasheet" "~" (at 97.79 67.31 0)
      (effects (font (size 1.27 1.27)) hide)
    )
    (pin "1" (uuid b81ff549-6205-4a8b-971c-be0e89c1460c))
    (instances
      (project "pcb"
        (path "/51502770-eb35-457a-b632-d7bc29a52de3/a4cbc363-e942-428c-9b87-30237cfb9e8e"
          (reference "TP5") (unit 1)
        )
      )
    )
  )

  (symbol (lib_id "power:+5V") (at 167.64 69.85 0) (unit 1)
    (in_bom yes) (on_board yes) (dnp no)
    (uuid f9f8d73e-e22e-4a80-a51b-53c5791352e2)
    (property "Reference" "#PWR0104" (at 167.64 73.66 0)
      (effects (font (size 1.27 1.27)) hide)
    )
    (property "Value" "+5V" (at 168.021 65.4558 0)
      (effects (font (size 1.27 1.27)))
    )
    (property "Footprint" "" (at 167.64 69.85 0)
      (effects (font (size 1.27 1.27)) hide)
    )
    (property "Datasheet" "" (at 167.64 69.85 0)
      (effects (font (size 1.27 1.27)) hide)
    )
    (pin "1" (uuid f9c6dea8-70e9-4918-bfab-85c5d2564963))
    (instances
      (project "pcb"
        (path "/51502770-eb35-457a-b632-d7bc29a52de3/a4cbc363-e942-428c-9b87-30237cfb9e8e"
          (reference "#PWR0104") (unit 1)
        )
      )
    )
  )

  (symbol (lib_id "Jumper:SolderJumper_3_Open") (at 210.82 74.93 270) (unit 1)
    (in_bom yes) (on_board yes) (dnp no)
    (uuid fb2e33d4-3a82-4d1b-8e41-cb8c9c511fdd)
    (property "Reference" "JP3" (at 205.74 72.39 90)
      (effects (font (size 1.27 1.27)) (justify left))
    )
    (property "Value" "SolderJumper_3_Open" (at 215.9 64.77 0)
      (effects (font (size 1.27 1.27)) (justify left))
    )
    (property "Footprint" "Jumper:SolderJumper-3_P1.3mm_Open_Pad1.0x1.5mm" (at 210.82 74.93 0)
      (effects (font (size 1.27 1.27)) hide)
    )
    (property "Datasheet" "~" (at 210.82 74.93 0)
      (effects (font (size 1.27 1.27)) hide)
    )
    (pin "1" (uuid 40335229-21ab-4a0b-8fa6-1ec5ec2864f7))
    (pin "2" (uuid f4832da5-4e14-41c4-b4e8-a6bdc4efd18c))
    (pin "3" (uuid 66e7e878-b4c3-4670-b00c-2b492bb1a0ef))
    (instances
      (project "pcb"
        (path "/51502770-eb35-457a-b632-d7bc29a52de3/a4cbc363-e942-428c-9b87-30237cfb9e8e"
          (reference "JP3") (unit 1)
        )
      )
    )
  )
)
